G04 #@! TF.FileFunction,Soldermask,Top*
%FSLAX46Y46*%
G04 Gerber Fmt 4.6, Leading zero omitted, Abs format (unit mm)*
G04 Created by KiCad (PCBNEW 4.0.7) date Saturday, 03 November 2018 06:36:09*
%MOMM*%
%LPD*%
G01*
G04 APERTURE LIST*
%ADD10C,0.100000*%
%ADD11C,3.600000*%
%ADD12R,2.000000X2.000000*%
%ADD13C,2.000000*%
%ADD14R,1.600000X1.600000*%
%ADD15C,1.600000*%
%ADD16R,2.200000X2.200000*%
%ADD17C,2.200000*%
%ADD18R,3.400000X3.400000*%
%ADD19C,3.400000*%
%ADD20O,2.000000X2.000000*%
%ADD21R,2.100000X2.100000*%
%ADD22O,2.100000X2.100000*%
G04 APERTURE END LIST*
D10*
D11*
X104959000Y-82256480D03*
X70739000Y-82256480D03*
X104959000Y-52453540D03*
D12*
X96862900Y-54660800D03*
D13*
X99362900Y-54660800D03*
X90228420Y-72961500D03*
X87728420Y-72961500D03*
X87409020Y-52732940D03*
X89909020Y-52732940D03*
D12*
X98981260Y-75608180D03*
D13*
X101481260Y-75608180D03*
D14*
X98884740Y-80609440D03*
D15*
X100384740Y-80609440D03*
D16*
X75333860Y-73522840D03*
D17*
X75333860Y-76062840D03*
D16*
X75534520Y-83177380D03*
D17*
X75534520Y-80637380D03*
D18*
X101094540Y-65270380D03*
D19*
X101094540Y-60190380D03*
D13*
X82171540Y-83177380D03*
D20*
X82171540Y-75557380D03*
D13*
X79354680Y-83078320D03*
D20*
X79354680Y-75458320D03*
D12*
X82199480Y-52552600D03*
D20*
X82199480Y-55092600D03*
X82199480Y-57632600D03*
X82199480Y-60172600D03*
X82199480Y-62712600D03*
X82199480Y-65252600D03*
D12*
X85039200Y-75438000D03*
D20*
X92659200Y-83058000D03*
X85039200Y-77978000D03*
X92659200Y-80518000D03*
X85039200Y-80518000D03*
X92659200Y-77978000D03*
X85039200Y-83058000D03*
X92659200Y-75438000D03*
D21*
X75275440Y-52608480D03*
D22*
X75275440Y-55148480D03*
X75275440Y-57688480D03*
X75275440Y-60228480D03*
X75275440Y-62768480D03*
X75275440Y-65308480D03*
X75275440Y-67848480D03*
X75275440Y-70388480D03*
D13*
X95577660Y-67851020D03*
D20*
X95577660Y-75471020D03*
D12*
X85171280Y-55130700D03*
D20*
X92791280Y-70370700D03*
X85171280Y-57670700D03*
X92791280Y-67830700D03*
X85171280Y-60210700D03*
X92791280Y-65290700D03*
X85171280Y-62750700D03*
X92791280Y-62750700D03*
X85171280Y-65290700D03*
X92791280Y-60210700D03*
X85171280Y-67830700D03*
X92791280Y-57670700D03*
X85171280Y-70370700D03*
X92791280Y-55130700D03*
D13*
X78737460Y-67553840D03*
D20*
X78737460Y-52313840D03*
D13*
X95542100Y-78178660D03*
D20*
X95542100Y-80718660D03*
D11*
X70739000Y-52453540D03*
M02*
