EESchema Schematic File Version 2
LIBS:power
LIBS:device
LIBS:transistors
LIBS:conn
LIBS:linear
LIBS:regul
LIBS:74xx
LIBS:cmos4000
LIBS:adc-dac
LIBS:memory
LIBS:xilinx
LIBS:microcontrollers
LIBS:dsp
LIBS:microchip
LIBS:analog_switches
LIBS:motorola
LIBS:texas
LIBS:intel
LIBS:audio
LIBS:interface
LIBS:digital-audio
LIBS:philips
LIBS:display
LIBS:cypress
LIBS:siliconi
LIBS:opto
LIBS:atmel
LIBS:contrib
LIBS:valves
LIBS:hallsens2-cache
EELAYER 25 0
EELAYER END
$Descr A4 11693 8268
encoding utf-8
Sheet 1 1
Title ""
Date ""
Rev ""
Comp ""
Comment1 ""
Comment2 ""
Comment3 ""
Comment4 ""
$EndDescr
$Comp
L +5V #PWR01
U 1 1 5BCE9D88
P 4800 2500
F 0 "#PWR01" H 4800 2350 50  0001 C CNN
F 1 "+5V" H 4800 2640 50  0000 C CNN
F 2 "" H 4800 2500 50  0001 C CNN
F 3 "" H 4800 2500 50  0001 C CNN
	1    4800 2500
	1    0    0    -1  
$EndComp
$Comp
L LM555 U9
U 1 1 5BCEABB5
P 9750 4900
F 0 "U9" H 9450 5300 50  0000 L CNN
F 1 "LM555" H 9850 5250 50  0000 L CNN
F 2 "Housings_DIP:DIP-8_W7.62mm_Socket" H 9750 4900 50  0001 C CNN
F 3 "" H 9750 4900 50  0001 C CNN
	1    9750 4900
	1    0    0    -1  
$EndComp
$Comp
L GND #PWR02
U 1 1 5BCEACE4
P 9750 6000
F 0 "#PWR02" H 9750 5750 50  0001 C CNN
F 1 "GND" H 9750 5850 50  0000 C CNN
F 2 "" H 9750 6000 50  0001 C CNN
F 3 "" H 9750 6000 50  0001 C CNN
	1    9750 6000
	1    0    0    -1  
$EndComp
$Comp
L R R2
U 1 1 5BCEAE04
P 9000 4400
F 0 "R2" V 9080 4400 50  0000 C CNN
F 1 "20K" V 9000 4400 50  0000 C CNN
F 2 "Resistors_THT:R_Axial_DIN0207_L6.3mm_D2.5mm_P7.62mm_Horizontal" V 8930 4400 50  0001 C CNN
F 3 "" V 9080 4400 50  0001 C CNN
	1    9000 4400
	1    0    0    -1  
$EndComp
$Comp
L R R3
U 1 1 5BCEAE6A
P 9000 5000
F 0 "R3" V 9080 5000 50  0000 C CNN
F 1 "30K" V 9000 5000 50  0000 C CNN
F 2 "Resistors_THT:R_Axial_DIN0207_L6.3mm_D2.5mm_P7.62mm_Horizontal" V 8930 5000 50  0001 C CNN
F 3 "" V 9080 5000 50  0001 C CNN
	1    9000 5000
	1    0    0    -1  
$EndComp
$Comp
L R R4
U 1 1 5BCEAEC0
P 10850 5200
F 0 "R4" V 10930 5200 50  0000 C CNN
F 1 "470R" V 10850 5200 50  0000 C CNN
F 2 "Resistors_THT:R_Axial_DIN0207_L6.3mm_D2.5mm_P7.62mm_Horizontal" V 10780 5200 50  0001 C CNN
F 3 "" V 10930 5200 50  0001 C CNN
	1    10850 5200
	1    0    0    -1  
$EndComp
$Comp
L CP C11
U 1 1 5BCEB03E
P 9000 5500
F 0 "C11" H 9025 5600 50  0000 L CNN
F 1 "22uF" H 9025 5400 50  0000 L CNN
F 2 "Capacitors_THT:CP_Radial_D5.0mm_P2.50mm" H 9038 5350 50  0001 C CNN
F 3 "" H 9000 5500 50  0001 C CNN
	1    9000 5500
	1    0    0    -1  
$EndComp
$Comp
L LED_ALT D1
U 1 1 5BCEB21E
P 10850 5550
F 0 "D1" V 10850 5650 50  0000 C CNN
F 1 "LED" V 10750 5750 50  0000 C CNN
F 2 "LEDs:LED_D3.0mm" H 10850 5550 50  0001 C CNN
F 3 "" H 10850 5550 50  0001 C CNN
	1    10850 5550
	0    -1   -1   0   
$EndComp
$Comp
L Screw_Terminal_01x02 J1
U 1 1 5BCF1453
P 4000 1700
F 0 "J1" H 4000 1800 50  0000 C CNN
F 1 "Screw_Terminal_01x02" V 4100 1650 50  0000 C CNN
F 2 "Connectors_Terminal_Blocks:TerminalBlock_bornier-2_P5.08mm" H 4000 1700 50  0001 C CNN
F 3 "" H 4000 1700 50  0001 C CNN
	1    4000 1700
	-1   0    0    1   
$EndComp
$Comp
L +5V #PWR03
U 1 1 5BCF14D6
P 5200 1500
F 0 "#PWR03" H 5200 1350 50  0001 C CNN
F 1 "+5V" H 5200 1640 50  0000 C CNN
F 2 "" H 5200 1500 50  0001 C CNN
F 3 "" H 5200 1500 50  0001 C CNN
	1    5200 1500
	1    0    0    -1  
$EndComp
$Comp
L GND #PWR04
U 1 1 5BCF153B
P 5200 1800
F 0 "#PWR04" H 5200 1550 50  0001 C CNN
F 1 "GND" H 5200 1650 50  0000 C CNN
F 2 "" H 5200 1800 50  0001 C CNN
F 3 "" H 5200 1800 50  0001 C CNN
	1    5200 1800
	1    0    0    -1  
$EndComp
$Comp
L CP C1
U 1 1 5BD05FAB
P 4500 1650
F 0 "C1" H 4525 1750 50  0000 L CNN
F 1 "100uF" H 4525 1550 50  0000 L CNN
F 2 "Capacitors_THT:CP_Radial_D5.0mm_P2.50mm" H 4538 1500 50  0001 C CNN
F 3 "" H 4500 1650 50  0001 C CNN
	1    4500 1650
	1    0    0    -1  
$EndComp
$Comp
L C C2
U 1 1 5BD06004
P 4900 1650
F 0 "C2" H 4925 1750 50  0000 L CNN
F 1 "0.1uF" H 4925 1550 50  0000 L CNN
F 2 "Capacitors_THT:C_Disc_D3.0mm_W1.6mm_P2.50mm" H 4938 1500 50  0001 C CNN
F 3 "" H 4900 1650 50  0001 C CNN
	1    4900 1650
	1    0    0    -1  
$EndComp
Text Notes 5500 1600 0    60   ~ 0
 Test supply is regulated \nput 10 Ohm/5W resistor across the output \nsee if the voltage is still 5V, \nand that it returns to 5V once the load is removed. 
$Bitmap
Pos 6000 1950
Scale 1.000000
Data
89 50 4E 47 0D 0A 1A 0A 00 00 00 0D 49 48 44 52 00 00 01 3F 00 00 00 A2 08 02 00 00 00 B8 4B 5D 
D5 00 00 00 03 73 42 49 54 08 08 08 DB E1 4F E0 00 00 11 20 49 44 41 54 78 9C ED DD 6F 68 1B 67 
9E 07 F0 DF 1C FD A3 7D 63 A9 1C 89 14 93 10 65 37 2F 54 62 F0 24 79 61 C5 70 AB F1 8B 3D AB D0 
22 85 5B 6A 75 B9 AD E4 92 50 A7 1B B0 42 5E 44 F5 C2 9E D3 83 58 3D 28 56 21 97 3F 64 A9 D4 BB 
17 96 9D 14 CB E4 20 F2 F6 85 27 0B AD 95 42 9A 09 74 89 5E A4 E7 29 59 2C 39 79 61 F9 DE 44 29 
2D 73 2F C6 92 C7 92 2C CB F6 48 9A 67 FC FD BC B2 9F DF 48 7A 9E 47 FE 7A FE E8 F1 98 14 8D C5 
C5 45 65 63 A8 A2 8A AA A1 AA FF 40 00 C0 26 A4 17 80 55 48 2F 00 AB 90 5E 00 56 21 BD 00 AC E2 
16 17 17 DB DD 07 00 D8 16 03 5E 07 47 15 55 54 1B A9 E2 C8 19 80 55 48 2F 00 AB 90 5E 00 56 21 
BD 00 AC 42 7A 01 58 A5 67 7A E5 84 97 13 12 B2 A6 A5 90 1E E2 BC EB 5A 00 76 2D 39 E9 E7 38 AE 
B3 B3 93 E3 38 2E 9A A1 5A 91 59 99 BB D0 78 64 F4 4C AF 53 08 F4 DF 4D 65 F2 E5 86 82 98 BC 1E 
1C F2 3B 75 7C 0D 00 66 E5 A5 99 81 E9 DC EA A7 3E 11 37 D5 8A CC FC CC 7F 37 1E 19 5D 8F 9C 9D 
42 C0 33 93 14 4B 7D C9 A7 13 9F BF 1F 10 6C 44 44 2B F7 63 01 97 83 73 B8 02 D7 A4 A2 DA CF 4C 
B9 E5 BB A2 9E BD 00 30 86 4C 54 DD C3 AE 92 E5 AC 9D 77 3A D6 6D 52 15 99 C9 A9 DF AF 46 A6 01 
3A AF B5 7A 32 F9 2F 3D DF 9E 7D F4 71 9F 95 E8 C9 E4 EF DE 7C 7C F6 DE 1F 7B 2D F4 64 F2 77 6F 
7E FB EE 5F 3F F6 5A 9F 4C 0E BE F9 EC EC C3 B3 7B AB 5A 8E EB D8 0D 00 03 B8 7F B9 73 FE C4 62 
E9 27 BB F8 F5 9F 7E F9 6F 8F FB 3B FE 36 FB B8 C3 77 36 16 3D 7D DC 4A B4 61 64 1A A3 F3 2A 90 
85 B8 87 86 E7 9E AB 5F D9 C7 E6 15 B5 F1 04 FD 61 5E BB F5 42 DC 43 17 E6 2B 1E BB 93 D7 45 15 
55 E3 54 6F 8F 54 A4 CC 37 91 53 16 E2 1E FB C0 C4 82 B2 B8 F8 68 7E AC 87 7C 13 39 75 EB F5 91 
19 B9 DD C6 B5 56 4E 21 E4 49 A6 33 45 92 52 B1 42 C4 EB 26 22 A2 7C 7E 9E AC EB 36 CB E7 EF 52 
A3 87 07 00 8C 39 7E 56 51 14 45 99 1F A3 D5 FD 57 2A E0 20 67 48 CC 27 03 4E 22 B2 BA 03 61 DF 
4C E9 74 77 7D 64 84 AD 1C 83 EA FE 89 91 93 F7 3B 12 E9 4C 46 4C D8 C2 7E 5E 6D 73 38 4E 54 6C 
E5 70 78 F4 7E 61 00 A6 38 6C AB FB AF 75 91 E9 DA CA 53 E8 FF 79 2F 2F 84 1C 89 48 38 E1 08 09 
4E 2A 75 CF 7B 6C 26 25 16 88 48 4E F8 B9 50 AA E0 E4 FD 3D C9 72 4B 67 38 5D D0 BD 1F 00 6D E6 
8E A8 57 96 55 52 8C F7 27 E4 22 11 AD 88 C9 58 66 D8 EF 2E 9D DD D6 88 4C 63 9A B0 5A 83 17 42 
8E 7B F7 9C 21 EF 5A 4F F8 D3 57 47 8A 51 9E E3 1C DE B4 30 1F F3 DB 88 0F 27 A3 E5 96 DB 17 BD 
38 8C 06 93 E3 87 92 01 69 C8 C5 75 76 FE 26 9A 0F 8B 51 61 ED D2 54 8D C8 34 E4 25 7D 7B A8 F6 
25 2C 29 E1 8A B6 03 7D B1 B4 1C D3 B6 38 BD E5 96 5C 2E D7 84 6E 00 18 8A C5 15 88 A5 03 B1 5C 
2E B7 6F DF BE F5 A5 B5 C8 6C 29 09 58 29 09 C0 2A A4 17 80 55 48 2F 00 AB 74 5B 6B D5 D9 D9 B9 
C3 67 D8 71 4F EE 5F EE 7C EB D2 DA B7 FB 8F BD 7D 36 1A 7D B7 CB 52 2A 8D DC 5E D4 AE E8 2A 6D 
7E 62 FC DE 17 03 07 88 E8 69 FA 0C FF DE 0C 11 69 36 7C 92 1A EC F9 80 AE 48 71 FF 5E 22 22 5A 
F9 FA F2 99 0B 37 C4 EF E9 57 BE F3 57 A3 EF 76 59 AB 5E 77 BF 70 EA E3 8F 3F EA 3B A0 7E F7 F4 
EB 1B 97 2E DD 98 FA F6 EF 44 FB 8F F5 7B 4F FD F1 BC FF B0 95 A8 F8 38 75 E9 4F 9F CC 88 DF 3F 
D3 6C 5E B3 B1 76 37 88 A8 F8 DD 7F 9D 3B F3 C9 CC F7 CF 34 E3 BC 7F B9 F3 AD 4B 47 46 6E DF 3E 
7B BC F6 A8 2B 9E 67 5D CF F7 FC 4A F0 9D FF 68 C4 7F B8 D1 85 3E B0 81 D6 65 41 AF F5 25 3B EC 
6E 45 4F B6 D5 AB F9 31 A2 D2 C7 E3 8A B2 7C 67 D8 4E 7B FE 70 EB 79 75 49 B3 39 11 D1 C0 74 4E 
51 14 E5 F9 DC F0 6A 83 BA E1 FF 4A B7 C6 FA ED 44 B4 B6 2C 66 79 3A 48 E4 B9 FA 48 51 1E 8C 1C 
21 FB FB 77 96 2B 9F 7C 79 7E AC 87 A8 7F FC DE A2 A2 28 0B 13 03 76 FB 40 FC C1 B2 5A 9A 1B EB 
21 EA 8F 2F 28 8B D2 15 9F FA 95 B2 7C E7 FD D5 AF 94 DC 84 DA B8 B8 F8 68 AD 51 51 9E E7 E6 B4 
DD 58 1D EF F3 B9 0B 76 B5 27 B9 E9 20 91 7D EC 81 A2 28 CA BC BA C6 A7 F4 D0 75 A3 7E 9E 9B 1B 
11 F6 AC 1B CE FA 0D 1E DD 1A E9 29 8F 69 FB EF 02 AA AD CB 82 6E 47 CE 8D 8C A7 7E 9F F4 EA C9 
2A 1B EF 76 D3 B3 C7 4F EB 7F 92 EC F1 78 68 52 CC 16 89 48 CA 24 69 60 60 A0 54 C9 FC 99 FF 6D 
8C F8 7E ED D6 D9 EC E7 44 5E DE 45 E4 D8 BF 9F 96 D2 59 B9 EA 55 DD 81 21 0F CD A6 EF 3F A5 42 
6A F4 9D 49 3E 1A 0D F1 EA C7 61 36 21 92 51 94 74 C8 49 B4 D7 9F 5A FD CA E6 72 7B 68 36 2D E5 
89 1C 81 52 A3 75 AD 91 32 B1 7D 7D 95 DD 20 A2 42 3E BB 44 59 51 92 C9 E1 4F 28 4A 3E C2 6B 8A 
B3 91 68 D5 07 E8 99 D8 BE BE 1B 74 A4 F2 79 34 AC BD A7 A2 C3 4B D7 23 09 A9 EE 8C C1 A6 5A 96 
05 F3 9E F7 CA 62 2A 43 C7 7A 0F 3B EA 6E 65 F3 7A 7D 94 CC 48 44 52 26 B9 E4 F1 7A CB 29 B0 74 
9C BA 22 A6 46 05 ED D6 BC FB 82 9D D2 52 96 8A F2 DF FE 4E DD 43 6E D7 06 4F 6B B1 50 21 93 FE 
9C 3C 81 FA 9F BF 17 33 C9 6B 77 89 9C 0E 6D 2F 8B F7 35 8D 16 DB F0 44 65 37 88 C8 62 73 10 2D 
4D BE E3 16 22 E9 FC FA 92 CF E7 5B BA 1E B9 96 29 56 3C 60 78 E2 8B CF CE 57 3E CF FA 6D 9C 6E 
1F 3D CC C8 F9 7A 1B 81 71 98 2E BD 1F 9E E0 54 87 DE 99 B4 BD 7F 4A 73 EE 58 9B D3 ED F7 2C 25 
33 92 2C A5 1E 76 FB F9 B5 38 F2 EF 7E E4 77 55 9C 02 5A 84 48 62 38 7F E6 75 EE 17 27 FE B3 63 
E4 DA 90 BB EA 14 B1 90 49 5E BB 4B FD C2 91 BD C5 42 9E C8 66 51 B7 C8 44 B9 12 7F B2 1C 0E 39 
19 F2 7F 78 8F EC 17 BC 9A 3D A7 9C 3A F7 9E A6 91 1F 8A 05 2A BB 41 44 36 6F 64 3A 78 90 68 E9 
EE C7 6F F0 42 38 2D AF 95 DC 91 D1 F1 9E 87 1F 8E 26 65 ED 03 F8 A1 58 60 D3 33 5A 0B 11 51 11 
7F AF C9 0A D3 A5 B7 7C 72 FB 7C 21 EE BA FE C1 AF 2F 6D B6 08 D3 E9 F2 DA 1F 8A 62 2A 73 97 04 
7E A3 7D E9 2A 39 11 78 E3 53 F7 74 4E 51 16 AE 74 5C 3A 11 D0 DC 03 61 F5 B7 C6 6B 81 94 6B 7C 
3E 39 70 80 6C 0E 27 91 9C 57 A3 EA 8E 28 CA EA 99 6D 49 31 13 0D BC 33 B9 44 3D 63 A9 D1 F2 B2 
9B 62 26 1A F8 60 E6 D9 FA C6 0D FA ED 4F 48 8F 26 86 3D 76 5A BA FB E9 1B 43 DA DB 31 F0 43 D1 
61 FB 6C 24 9A C8 D6 1F 4E 6D 16 5C B5 62 85 E9 D2 5B 66 71 7A 03 3E A2 A7 85 4D 76 25 16 DE 1D 
A0 99 73 E7 AE D3 FB 5E BE FE 0F 6E 3E 93 9A 25 9F D7 ED 20 72 1E F7 0A 34 AB B9 2B 42 E9 B7 86 
9C 49 84 DD 36 22 B2 F0 42 90 1E A6 25 79 ED F1 9A 9E 94 76 BB 03 13 C9 48 79 0F BE DA B8 C7 A7 
6D AC C3 E6 0A C4 C4 EC 83 71 1F D1 6C 5E 7B B8 6B 11 22 31 DF D2 F5 EB 9F 6F FE 1C 5A C5 6C 66 
86 BA DD CE FA 27 1B 60 18 E6 4D AF 7A E2 7B A4 D7 B5 D9 CF A2 C5 25 0C 10 11 F9 04 D7 26 AB AD 
1D 2E A1 9B 66 92 A2 4C 24 DF 4F 8B D4 E3 E5 EB 3C B9 CD 3F 3A 31 20 45 86 62 99 02 11 51 21 13 
1B 0A CF A8 A5 95 B9 68 58 DD ED 26 02 CE D2 F6 85 B4 DA 38 F2 D9 F8 5A E3 06 0A E9 21 8E E3 23 
62 81 C8 66 B3 11 91 CF B9 FE 21 8E C0 E8 78 CF 26 4F 52 61 E5 F1 CC B5 A4 7D 60 34 C0 6F BE 2D 
18 82 E9 D2 5B 3E EF E5 0E 45 0A 81 2B 57 7F CF D7 28 AD 3B FB 24 07 EF F5 10 75 0B 2E E7 66 4F 
CE 87 53 D3 C3 C5 51 37 C7 B9 3F 79 71 EA 4E 72 A8 FE 91 B6 33 90 94 92 5E 29 E2 76 70 1C F7 9A 
FF 5A D1 3B 1C BF 13 F3 3A 56 BE 4D 5F 5F 22 A2 7B 1F 9E F8 45 B9 37 85 4C 4A 6D BC F4 D6 2F AB 
BA 58 C9 E6 8D CE 8F F3 62 E8 35 8E E3 DC 51 CB F8 7C 22 50 F9 7B 84 1F 8A 0E DB 37 1B 10 D1 DA 
B4 FC 7A 70 C6 11 13 13 7E EC 79 D9 51 E7 D3 A4 9A D7 B2 B7 57 AD 7E AD D6 BC 2E AA A8 1A AD AA 
63 16 5A F4 3F 04 D5 D5 27 F8 7F 85 00 7A 66 41 AF DF 28 D8 F7 A2 8A 6A 23 55 1D B3 D0 8C BF EF 
85 75 64 59 FE E1 87 1F 88 E8 E0 C1 83 CE 8A 8B 4B CD AC 82 E9 21 BD 4D 24 CB F2 E0 E0 A0 28 8A 
E5 16 41 10 E2 F1 F8 AB AF BE DA D4 2A EC 12 48 6F B3 48 92 D4 D7 D7 57 28 14 AC 56 2B CF F3 6A 
8B 28 8A 47 8F 1E 9D 9A 9A 5A 5A 5A 6A 52 B5 EA BE 0D 60 5E 7A 1D CD E3 BC 57 EB D1 A3 47 EA A1 
6C 30 18 5C 5E 5E FD AB 9D E5 E5 E5 60 30 48 44 AF BF FE 7A 93 AA 5D 5D 5D 6D 19 2F AA 8D 57 75 
CC 02 D2 DB 94 EA F8 F8 38 11 79 3C 9E EA 92 C7 B3 7A 33 DC 26 55 E3 F1 F8 F6 FA 8C 6A 6B AA 3A 
66 C1 74 AB 35 8C 61 6A 6A 8A 88 C2 E1 CA 9B F3 69 1B 9B 54 4D 24 12 DB E8 30 B0 08 E9 6D 8A 6F 
BE F9 86 88 FC 7E 7F 75 A9 DC D8 A4 EA 57 5F 7D B5 9D 1E 03 83 90 DE A6 F8 F9 E7 9F DB F5 D2 3F 
FD F4 53 BB 5E 1A 5A EC A5 8A 7B 29 D7 BF B5 F2 4E AA 44 C4 71 5C E3 3D 33 81 E6 4D 66 FD EA 6E 
9B 67 16 D5 79 07 B7 F0 D6 EB 75 2E DE EC 3B FD 30 A7 E6 85 25 55 47 47 87 D5 6A 6D 46 F5 C4 89 
CA FF 18 05 C6 B4 D1 3B 68 C4 AB 56 A6 BF FA 57 5D D5 2E A5 A8 90 CD 66 0B 85 0D 6F 1A B0 93 EA 
17 5F 7C B1 93 3E D7 A9 36 75 AE DA 52 6D EF 88 EA C6 A5 51 38 EF 05 60 15 D2 0B C0 2A A4 17 4C 
6B 72 72 32 16 8B 6D BE 1D B3 90 5E 30 AD A9 A9 A9 54 2A D5 EE 5E 34 11 D2 0B C0 2A A4 17 80 55 
48 2F 00 AB 5A 74 5F 2B 63 C2 DD B6 1A C7 C4 5C 4D 4E 4E DE BC 79 B3 FC ED 77 DF 7D 47 44 5D 5D 
5D E5 96 FE FE FE D3 A7 4F AB 5F 33 31 A2 FA 5E D2 FE 31 77 2E 97 AB F3 B7 DD E6 AB AA 36 DA C0 
98 7D C6 5C D5 AF BE FC F2 CB DA 6F 39 8E D3 B6 74 74 74 54 6C 6F FC 11 D5 A9 E2 DE 1A 60 1E E1 
70 58 FB B7 93 BD BD BD AF BC F2 4A 9D 45 6F AC C3 79 2F 00 AB 90 5E 00 56 21 BD 00 AC C2 79 2F 
98 96 D7 EB ED E8 E8 68 77 2F 9A 08 E9 05 D3 3A 7D FA B4 B9 EF 8F 8B 23 67 00 56 21 BD 00 AC C2 
5A 2B B6 57 DB B4 8C F9 E6 CA 0C 23 6A E5 DD 40 5A 5C 2D DF BB 7C 27 04 41 30 CE 88 9A 57 35 DF 
5C 99 6F 44 D5 55 1C 39 6F 42 D9 95 B7 D4 DB 1E F3 CD 95 C1 47 64 E6 6B CE A2 28 36 7B DD AF 69 
98 6F AE CC 37 A2 6A D8 F7 02 B0 0A E9 05 60 15 D2 0B C0 2A A4 17 80 55 48 2F 00 AB 8C 99 5E 39 
E9 E7 38 7F 32 5F FA BE 28 5D 0B B8 1C 1C E7 10 C2 C9 6C B1 D1 67 11 04 A1 B3 B3 93 DB 58 23 D5 
BE BE BE E6 8C 71 7B E4 D4 60 E7 A6 33 B3 8D E9 32 D2 5C E9 F3 EE 57 93 24 E9 E2 C5 8B 7D 7D 7D 
87 0E 1D D2 8E E8 E8 D1 A3 27 4F 9E FC F4 D3 4F 25 49 D2 A3 FF AD D3 BA FF 21 D8 60 B5 F8 F4 EB 
3F 87 CF 5C 12 89 FA 97 97 72 39 85 88 8A F7 FF FD 5F CF 2C 0D FE 75 F1 DD E2 E5 DF FC F3 6F FF 
E3 1F BF 3C DD 55 F3 B1 15 7E FC F1 C7 3A AF D8 A0 17 2F 5E 6C F4 FC 2D 9E AB 9A 33 73 B9 6A 66 
72 0B FF 53 DD B8 E9 EB 1A 64 AE 74 7C F7 CB D5 95 95 95 9B 37 6F DE B8 71 E3 C9 93 27 35 B7 91 
24 49 92 24 F5 CE CF 07 0E 1C 38 7F FE FC DB 6F BF DD 78 9F DB 59 35 D8 0A 92 F9 31 22 7B 7F 7F 
3F 11 F9 26 72 6A F5 2F 23 76 B2 8F 3D 28 95 BB C7 1F 28 8A 92 9B F0 11 F9 C6 27 2E F6 EF 27 3A 
D8 3F 3E FF 7C EB AF 5B 3D 03 4D 18 91 5E D5 D5 99 11 34 33 A3 3C 18 AB 98 99 BF 2C 2E 56 37 96 
A7 AB FF E2 95 71 DF C1 8D A6 CB 00 73 B5 C5 77 7F 22 B7 B8 B8 A8 CC 8F 11 D1 D8 7C ED 67 8E C7 
E3 36 9B 4D ED FC C1 83 07 87 87 87 A7 A7 A7 17 16 16 B4 23 9A 9B 9B 1B 1F 1F 0F 06 83 56 AB 55 
6D 74 3A 9D 9F 7D F6 99 1E 23 6A 6E D5 68 47 CE 16 DB F0 84 98 1A 15 34 4D 4F 1F DF 5F 22 B7 D3 
41 44 E4 70 78 E8 61 36 5F FA 1F 7A 33 E9 42 5F FC 9B 47 57 9D B3 E7 22 49 B9 D5 7D 6D AD D5 99 
E9 D5 34 E5 B3 99 8A 99 79 B6 52 A3 B1 3C 5D B3 73 FF E7 4D C9 06 9E AE AD BD FB F5 15 0A 85 F7 
DE 7B 6F 70 70 B0 50 28 78 3C 9E E9 E9 69 59 96 63 B1 98 DF EF 77 3A 9D DA 2D 05 41 08 87 C3 89 
44 42 96 E5 78 3C DE DD DD 2D CB 72 F9 B1 7A 8D AD 19 8C 96 5E 7E 28 16 70 59 36 2C 5B 2C 36 A2 
7C A1 74 F2 63 17 DC 87 89 5C BC 97 E8 6E 3E BF E1 A3 4C A1 A1 99 59 79 51 A3 B1 3C 5D 7B 7A 8F 
B9 0C 3D 5D 5B 7B F7 EB 13 04 21 9D 4E 5B AD D6 78 3C 2E 8A A2 DF EF DF F4 21 36 9B 2D 14 0A 49 
92 14 8F C7 3B 3A 3A 12 89 84 C1 AE 7A 54 32 5A 7A 37 51 2C 16 88 1C B6 D2 1B BC FA 3B 19 4A 33 
63 7D B5 46 63 79 BA 8E ED DF DB FA 8E E9 A8 62 38 9B 3A 72 E4 88 24 49 A1 50 68 AB 2F 14 0A 85 
6E DD BA D5 DD DD 5D 3E 96 36 26 06 D2 BB F7 F0 71 3B 65 E4 3C 11 51 3E 7F 97 BA 5D 0E 5B BB FB 
64 0C 0E 97 BB 62 66 F6 58 6B 34 32 3D 5D 9B BE FB C5 62 ED A3 08 49 92 BE FC F2 CB 8A 83 E4 C6 
75 75 75 49 92 64 F0 BB C9 32 90 5E 3A 7C 2C 64 5F 12 33 59 A2 AC 94 A6 EE 90 C0 B7 BB 47 46 E1 
72 57 CC 4C 57 AD 46 B6 A7 AB E6 BB 6F 73 38 89 32 99 6C 91 56 32 69 B1 CD 3D 6C 1F 16 D2 6B E9 
1D 15 E3 8E 98 C0 71 42 92 9F 48 0E B1 FD D3 A8 27 8B 50 63 66 6A 36 B2 AB E6 BB 6F 11 C2 D3 41 
5B B2 AF E7 9F 22 59 87 BB DD 5D 6C 1F 03 5E 07 6F 59 B5 7A 06 8C D0 2B 63 56 CD 37 57 26 18 11 
0B FB 5E 00 A8 05 F7 B5 62 FC CE 46 AD 62 BE B9 32 C3 88 0C 78 3C D0 B2 6A F5 0C 18 A1 57 C6 AC 
9A 6F AE 4C 30 22 1C 39 03 B0 0A E9 05 60 15 D2 0B C0 2A A4 17 80 55 48 2F 00 AB 90 5E 00 56 21 
BD 00 AC 42 7A 01 58 85 B5 56 8C AF B6 69 15 F3 CD 95 19 46 64 C0 15 24 2D AB 56 CF 80 11 7A 65 
CC AA F9 E6 CA 04 23 C2 91 33 00 AB 90 5E 00 56 21 BD 00 AC 42 7A 01 58 85 F4 02 B0 0A E9 05 60 
D5 2E 4D 6F A1 50 38 79 F2 A4 FA F5 C9 93 27 0D 7E CB FC F6 32 DF 5C 99 66 44 2F B5 BB 03 ED 11 
0A 85 66 66 66 D4 AF 53 A9 94 D5 6A 4D 24 12 6D ED 91 71 99 6F AE 4C 33 A2 16 AD B5 52 D7 B5 00 
80 4A 9F DC B5 66 8D 88 0E 1D 05 30 11 5D 52 D6 D2 F3 5E 5D 7A AC 4B D5 E7 F3 69 3B 16 0C 06 8D 
D0 2B 63 56 CD 37 57 ED 1D 91 8E 81 DA A5 57 AD 12 89 44 30 18 54 BF 0E 06 83 B1 58 AC BD FD 31 
32 F3 CD 95 69 46 B4 4B D3 6B B3 D9 12 89 84 FA 3B 32 91 48 94 FF 41 33 54 33 DF 5C 99 66 44 BB 
34 BD 00 26 80 F4 02 B0 0A E9 05 60 15 D2 0B C0 2A A4 17 80 55 2D 5D 6B C5 F6 3D 84 00 F4 A0 67 
16 5A F9 09 75 33 9E 19 55 54 D9 AA EA 98 05 1C 39 03 B0 0A E9 05 60 15 D2 0B C0 2A A4 17 80 55 
48 2F 00 AB 90 5E 00 56 21 BD 00 AC 42 7A 01 58 85 B5 56 00 2D 65 B8 B5 56 1E 8F 67 E7 3D E1 79 
7E E7 AB 4F 50 45 B5 BD D5 56 66 C1 40 47 CE 0A 6E 5E 07 40 44 0D 67 41 9F F4 8A A2 B8 F3 DF 64 
92 24 E9 D2 19 80 36 6A 65 16 0C B4 EF 05 80 2D 41 7A 01 58 85 F4 02 B0 4A FF F4 0A 82 C0 55 E9 
EC EC AC 6E E4 38 AE AF AF 4F F7 0E 00 18 44 B3 B3 D0 E6 7D 2F AE 33 03 A8 B6 91 05 FD FF 87 A0 
28 8A D5 8D B9 5C 6E DF BE 7D BA BF 16 80 91 35 3B 0B 2D 5A 6B 05 00 FA DB EA 27 51 A8 A2 8A AA 
41 AA B8 E6 0C C0 AA E6 A6 B7 7C CD 4D 7B 9D 0D D7 99 61 17 6A 46 16 DA B0 EF 55 70 9D 19 80 88 
76 9C 05 FD AF 39 6B 95 AF B9 E1 9A 33 EC 72 CD C8 02 CE 7B 01 58 85 F4 02 B0 0A E9 05 60 15 D2 
0B C0 2A AC B5 02 60 96 01 57 90 A0 8A 2A AA 8D 54 71 E4 0C C0 2A A4 17 80 55 48 2F 00 AB 90 5E 
00 56 21 BD 00 AC 42 7A 01 58 85 F4 02 B0 0A E9 05 60 15 D6 5A 01 30 CB 80 2B 48 50 45 15 D5 46 
AA 38 72 06 60 15 D2 0B C0 2A A4 17 80 55 48 2F 00 AB FE 1F 12 06 CB 1B 4D D0 F5 E8 00 00 00 00 
49 45 4E 44 AE 42 60 82 
EndData
$EndBitmap
Text Notes 9800 3600 0    60   ~ 0
consider add 0.1uF \ndecoupling cap
$Comp
L R R1
U 1 1 5BD09370
P 5000 3000
F 0 "R1" V 5080 3000 50  0000 C CNN
F 1 "10K" V 5000 3000 50  0000 C CNN
F 2 "Resistors_THT:R_Axial_DIN0207_L6.3mm_D2.5mm_P7.62mm_Horizontal" V 4930 3000 50  0001 C CNN
F 3 "" V 5080 3000 50  0001 C CNN
	1    5000 3000
	1    0    0    1   
$EndComp
Text Notes 5550 2400 0    60   ~ 0
10k pull up 
$Comp
L R_Network05 RN1
U 1 1 5BD09495
P 5400 2950
F 0 "RN1" H 5450 3150 50  0000 C CNN
F 1 "5x10K" V 5100 2950 50  0000 C CNN
F 2 "Resistors_THT:R_Array_SIP6" V 5775 2950 50  0001 C CNN
F 3 "" H 5400 2950 50  0001 C CNN
	1    5400 2950
	-1   0    0    -1  
$EndComp
Text Notes 3900 5050 0    60   ~ 0
consider filter caps across out to gnd\n680pf\n
$Comp
L TSH253 U5
U 1 1 5BCE9235
P 2700 5300
F 0 "U5" H 2550 5425 50  0000 C CNN
F 1 "TSH253" H 2700 5425 50  0000 L CNN
F 2 "TO_SOT_Packages_THT:TO-92_Inline_Narrow_Oval" H 2725 5150 50  0001 L CIN
F 3 "" H 2700 5250 50  0001 C CNN
	1    2700 5300
	1    0    0    -1  
$EndComp
$Comp
L TSH253 U4
U 1 1 5BCE91F0
P 2700 4600
F 0 "U4" H 2550 4725 50  0000 C CNN
F 1 "TSH253" H 2700 4725 50  0000 L CNN
F 2 "TO_SOT_Packages_THT:TO-92_Inline_Narrow_Oval" H 2725 4450 50  0001 L CIN
F 3 "" H 2700 4550 50  0001 C CNN
	1    2700 4600
	1    0    0    -1  
$EndComp
$Comp
L TSH253 U3
U 1 1 5BCE919D
P 2700 3900
F 0 "U3" H 2550 4025 50  0000 C CNN
F 1 "TSH253" H 2700 4025 50  0000 L CNN
F 2 "TO_SOT_Packages_THT:TO-92_Inline_Narrow_Oval" H 2725 3750 50  0001 L CIN
F 3 "" H 2700 3850 50  0001 C CNN
	1    2700 3900
	1    0    0    -1  
$EndComp
$Comp
L TSH253 U2
U 1 1 5BCE915A
P 2700 3200
F 0 "U2" H 2550 3325 50  0000 C CNN
F 1 "TSH253" H 2700 3325 50  0000 L CNN
F 2 "TO_SOT_Packages_THT:TO-92_Inline_Narrow_Oval" H 2725 3050 50  0001 L CIN
F 3 "" H 2700 3150 50  0001 C CNN
	1    2700 3200
	1    0    0    -1  
$EndComp
$Comp
L TSH253 U1
U 1 1 5BCE911A
P 2700 2500
F 0 "U1" H 2550 2625 50  0000 C CNN
F 1 "TSH253" H 2700 2625 50  0000 L CNN
F 2 "TO_SOT_Packages_THT:TO-92_Inline_Narrow_Oval" H 2725 2350 50  0001 L CIN
F 3 "" H 2700 2450 50  0001 C CNN
	1    2700 2500
	1    0    0    -1  
$EndComp
$Comp
L C C4
U 1 1 5BD12F97
P 2300 3350
F 0 "C4" H 2325 3450 50  0000 L CNN
F 1 "0.1uF" H 2325 3250 50  0000 L CNN
F 2 "Capacitors_THT:C_Disc_D3.0mm_W1.6mm_P2.50mm" H 2338 3200 50  0001 C CNN
F 3 "" H 2300 3350 50  0001 C CNN
	1    2300 3350
	1    0    0    -1  
$EndComp
$Comp
L GND #PWR05
U 1 1 5BD1344A
P 2700 3500
F 0 "#PWR05" H 2700 3250 50  0001 C CNN
F 1 "GND" H 2700 3350 50  0000 C CNN
F 2 "" H 2700 3500 50  0001 C CNN
F 3 "" H 2700 3500 50  0001 C CNN
	1    2700 3500
	1    0    0    -1  
$EndComp
$Comp
L C C3
U 1 1 5BD13771
P 2300 2650
F 0 "C3" H 2325 2750 50  0000 L CNN
F 1 "0.1uF" H 2325 2550 50  0000 L CNN
F 2 "Capacitors_THT:C_Disc_D3.0mm_W1.6mm_P2.50mm" H 2338 2500 50  0001 C CNN
F 3 "" H 2300 2650 50  0001 C CNN
	1    2300 2650
	1    0    0    -1  
$EndComp
$Comp
L GND #PWR06
U 1 1 5BD13777
P 2700 2800
F 0 "#PWR06" H 2700 2550 50  0001 C CNN
F 1 "GND" H 2700 2650 50  0000 C CNN
F 2 "" H 2700 2800 50  0001 C CNN
F 3 "" H 2700 2800 50  0001 C CNN
	1    2700 2800
	1    0    0    -1  
$EndComp
$Comp
L C C5
U 1 1 5BD137D2
P 2300 4050
F 0 "C5" H 2325 4150 50  0000 L CNN
F 1 "0.1uF" H 2325 3950 50  0000 L CNN
F 2 "Capacitors_THT:C_Disc_D3.0mm_W1.6mm_P2.50mm" H 2338 3900 50  0001 C CNN
F 3 "" H 2300 4050 50  0001 C CNN
	1    2300 4050
	1    0    0    -1  
$EndComp
$Comp
L GND #PWR07
U 1 1 5BD137D8
P 2700 4200
F 0 "#PWR07" H 2700 3950 50  0001 C CNN
F 1 "GND" H 2700 4050 50  0000 C CNN
F 2 "" H 2700 4200 50  0001 C CNN
F 3 "" H 2700 4200 50  0001 C CNN
	1    2700 4200
	1    0    0    -1  
$EndComp
$Comp
L C C6
U 1 1 5BD13835
P 2300 4750
F 0 "C6" H 2325 4850 50  0000 L CNN
F 1 "0.1uF" H 2325 4650 50  0000 L CNN
F 2 "Capacitors_THT:C_Disc_D3.0mm_W1.6mm_P2.50mm" H 2338 4600 50  0001 C CNN
F 3 "" H 2300 4750 50  0001 C CNN
	1    2300 4750
	1    0    0    -1  
$EndComp
$Comp
L GND #PWR08
U 1 1 5BD1383B
P 2700 4900
F 0 "#PWR08" H 2700 4650 50  0001 C CNN
F 1 "GND" H 2700 4750 50  0000 C CNN
F 2 "" H 2700 4900 50  0001 C CNN
F 3 "" H 2700 4900 50  0001 C CNN
	1    2700 4900
	1    0    0    -1  
$EndComp
$Comp
L C C7
U 1 1 5BD140D5
P 2300 5450
F 0 "C7" H 2325 5550 50  0000 L CNN
F 1 "0.1uF" H 2325 5350 50  0000 L CNN
F 2 "Capacitors_THT:C_Disc_D3.0mm_W1.6mm_P2.50mm" H 2338 5300 50  0001 C CNN
F 3 "" H 2300 5450 50  0001 C CNN
	1    2300 5450
	1    0    0    -1  
$EndComp
$Comp
L GND #PWR09
U 1 1 5BD140DB
P 2700 5600
F 0 "#PWR09" H 2700 5350 50  0001 C CNN
F 1 "GND" H 2700 5450 50  0000 C CNN
F 2 "" H 2700 5600 50  0001 C CNN
F 3 "" H 2700 5600 50  0001 C CNN
	1    2700 5600
	1    0    0    -1  
$EndComp
$Comp
L +5V #PWR010
U 1 1 5BD147E6
P 3350 2250
F 0 "#PWR010" H 3350 2100 50  0001 C CNN
F 1 "+5V" H 3350 2390 50  0000 C CNN
F 2 "" H 3350 2250 50  0001 C CNN
F 3 "" H 3350 2250 50  0001 C CNN
	1    3350 2250
	1    0    0    -1  
$EndComp
$Comp
L TSH253 U6
U 1 1 5BD14E26
P 2700 6000
F 0 "U6" H 2550 6125 50  0000 C CNN
F 1 "TSH253" H 2700 6125 50  0000 L CNN
F 2 "TO_SOT_Packages_THT:TO-92_Inline_Narrow_Oval" H 2725 5850 50  0001 L CIN
F 3 "" H 2700 5950 50  0001 C CNN
	1    2700 6000
	1    0    0    -1  
$EndComp
$Comp
L C C8
U 1 1 5BD14E2C
P 2300 6150
F 0 "C8" H 2325 6250 50  0000 L CNN
F 1 "0.1uF" H 2325 6050 50  0000 L CNN
F 2 "Capacitors_THT:C_Disc_D3.0mm_W1.6mm_P2.50mm" H 2338 6000 50  0001 C CNN
F 3 "" H 2300 6150 50  0001 C CNN
	1    2300 6150
	1    0    0    -1  
$EndComp
$Comp
L GND #PWR011
U 1 1 5BD14E32
P 2700 6300
F 0 "#PWR011" H 2700 6050 50  0001 C CNN
F 1 "GND" H 2700 6150 50  0000 C CNN
F 2 "" H 2700 6300 50  0001 C CNN
F 3 "" H 2700 6300 50  0001 C CNN
	1    2700 6300
	1    0    0    -1  
$EndComp
$Comp
L GND #PWR012
U 1 1 5BD18732
P 4800 4250
F 0 "#PWR012" H 4800 4000 50  0001 C CNN
F 1 "GND" H 4800 4100 50  0000 C CNN
F 2 "" H 4800 4250 50  0001 C CNN
F 3 "" H 4800 4250 50  0001 C CNN
	1    4800 4250
	1    0    0    -1  
$EndComp
$Comp
L C C9
U 1 1 5BD33EB1
P 6550 3100
F 0 "C9" V 6450 3150 50  0000 L CNN
F 1 "0.1uF" V 6700 3000 50  0000 L CNN
F 2 "Capacitors_THT:C_Disc_D3.0mm_W1.6mm_P2.50mm" H 6588 2950 50  0001 C CNN
F 3 "" H 6550 3100 50  0001 C CNN
	1    6550 3100
	0    1    1    0   
$EndComp
$Comp
L GND #PWR013
U 1 1 5BD3520E
P 6300 4300
F 0 "#PWR013" H 6300 4050 50  0001 C CNN
F 1 "GND" H 6300 4150 50  0000 C CNN
F 2 "" H 6300 4300 50  0001 C CNN
F 3 "" H 6300 4300 50  0001 C CNN
	1    6300 4300
	1    0    0    -1  
$EndComp
$Comp
L +5V #PWR014
U 1 1 5BD356AA
P 6300 3000
F 0 "#PWR014" H 6300 2850 50  0001 C CNN
F 1 "+5V" H 6300 3140 50  0000 C CNN
F 2 "" H 6300 3000 50  0001 C CNN
F 3 "" H 6300 3000 50  0001 C CNN
	1    6300 3000
	1    0    0    -1  
$EndComp
$Comp
L CP C12
U 1 1 5BD3E215
P 10250 5500
F 0 "C12" H 10275 5600 50  0000 L CNN
F 1 "0.01uF" H 10275 5400 50  0000 L CNN
F 2 "Capacitors_THT:CP_Radial_D4.0mm_P1.50mm" H 10288 5350 50  0001 C CNN
F 3 "" H 10250 5500 50  0001 C CNN
	1    10250 5500
	1    0    0    -1  
$EndComp
$Comp
L R R5
U 1 1 5BD3E664
P 10850 4250
F 0 "R5" V 10930 4250 50  0000 C CNN
F 1 "470R" V 10850 4250 50  0000 C CNN
F 2 "Resistors_THT:R_Axial_DIN0207_L6.3mm_D2.5mm_P7.62mm_Horizontal" V 10780 4250 50  0001 C CNN
F 3 "" V 10930 4250 50  0001 C CNN
	1    10850 4250
	1    0    0    -1  
$EndComp
$Comp
L LED_ALT D2
U 1 1 5BD3E6E2
P 10850 4650
F 0 "D2" V 10850 4750 50  0000 C CNN
F 1 "LED" V 10750 4850 50  0000 C CNN
F 2 "LEDs:LED_D3.0mm" H 10850 4650 50  0001 C CNN
F 3 "" H 10850 4650 50  0001 C CNN
	1    10850 4650
	0    -1   -1   0   
$EndComp
Connection ~ 2700 5600
Wire Wire Line
	3350 2250 3350 3500
Wire Wire Line
	3350 3500 3550 3500
Wire Wire Line
	3550 3600 3300 3600
Wire Wire Line
	3300 3600 3300 2500
Wire Wire Line
	3300 2500 3000 2500
Wire Wire Line
	3550 3700 3250 3700
Wire Wire Line
	3250 3700 3250 3200
Wire Wire Line
	3250 3200 3000 3200
Wire Wire Line
	3550 3800 3250 3800
Wire Wire Line
	3250 3800 3250 3900
Wire Wire Line
	3250 3900 3000 3900
Wire Wire Line
	3550 3900 3300 3900
Wire Wire Line
	3300 3900 3300 4600
Wire Wire Line
	3300 4600 3000 4600
Wire Wire Line
	3550 4000 3350 4000
Wire Wire Line
	3350 4000 3350 5300
Wire Wire Line
	3350 5300 3000 5300
Wire Wire Line
	9750 4050 9750 4500
Wire Wire Line
	10850 5350 10850 5400
Connection ~ 9250 5100
Wire Wire Line
	9750 5300 9750 6000
Connection ~ 9750 5900
Wire Wire Line
	10250 4100 10250 4700
Wire Wire Line
	9250 4700 9000 4700
Wire Wire Line
	9000 4550 9000 4850
Connection ~ 9000 4700
Wire Wire Line
	9000 5150 9000 5350
Wire Wire Line
	9250 4900 9250 5250
Wire Wire Line
	9250 5250 9000 5250
Connection ~ 9000 5250
Wire Wire Line
	9000 5650 9000 5900
Wire Wire Line
	9000 5900 10850 5900
Wire Wire Line
	10250 4900 10850 4900
Wire Wire Line
	10850 5900 10850 5700
Connection ~ 4900 1800
Connection ~ 4900 1500
Wire Wire Line
	4200 1500 5200 1500
Wire Wire Line
	4200 1800 5200 1800
Wire Wire Line
	2300 2800 2700 2800
Wire Wire Line
	2700 3500 2300 3500
Wire Wire Line
	2300 4200 2700 4200
Wire Wire Line
	2300 4900 2700 4900
Wire Wire Line
	2300 5600 2700 5600
Wire Wire Line
	2100 5300 2400 5300
Wire Wire Line
	2100 4600 2400 4600
Wire Wire Line
	2100 3900 2400 3900
Wire Wire Line
	2100 3200 2400 3200
Wire Wire Line
	2100 2500 2400 2500
Connection ~ 2700 6300
Wire Wire Line
	3000 6000 3400 6000
Wire Wire Line
	2300 6300 2700 6300
Wire Wire Line
	2100 6000 2400 6000
Wire Wire Line
	3350 2250 2100 2250
Wire Wire Line
	2100 2250 2100 6000
Connection ~ 2300 6000
Connection ~ 2100 5300
Connection ~ 2300 5300
Connection ~ 2100 4600
Connection ~ 2300 4600
Connection ~ 2100 3200
Connection ~ 2300 3200
Connection ~ 2100 3900
Connection ~ 2300 3900
Connection ~ 2100 2500
Connection ~ 2300 2500
Wire Wire Line
	3550 4100 3400 4100
Wire Wire Line
	3400 4100 3400 6000
Connection ~ 5600 3500
Connection ~ 5500 3600
Connection ~ 5400 3700
Connection ~ 5300 3800
Connection ~ 5200 3900
Wire Wire Line
	5000 4000 4800 4000
Wire Wire Line
	9000 3750 9000 4250
Wire Wire Line
	4800 4100 4800 4250
Wire Wire Line
	4800 2500 4800 3400
Wire Wire Line
	5600 2600 5600 2750
Wire Wire Line
	4800 2600 5600 2600
Connection ~ 4800 2600
Wire Wire Line
	5000 2850 5000 2600
Connection ~ 5000 2600
Wire Wire Line
	6400 3100 6300 3100
Connection ~ 6300 3100
Wire Wire Line
	6700 3100 6900 3100
Wire Wire Line
	6900 3100 6900 4250
Wire Wire Line
	6900 4250 6300 4250
Wire Wire Line
	6300 4200 6300 4300
Connection ~ 6300 4250
Wire Wire Line
	6300 3000 6300 3300
Connection ~ 5900 3850
Wire Wire Line
	4800 3900 5500 3900
Wire Wire Line
	4800 3800 5600 3800
Connection ~ 5000 4000
Wire Wire Line
	10850 4900 10850 5050
Wire Wire Line
	10250 5650 10250 5900
Connection ~ 10250 5900
Wire Wire Line
	10250 5350 10250 5100
Wire Wire Line
	10850 4950 10850 4800
Connection ~ 10850 4950
Wire Wire Line
	10850 4500 10850 4400
Wire Wire Line
	9000 4100 10850 4100
Connection ~ 9750 4100
Connection ~ 10250 4100
Wire Wire Line
	8850 3750 9000 3750
Wire Wire Line
	4800 3600 5700 3600
Wire Wire Line
	5600 3500 4800 3500
Wire Wire Line
	5600 3150 5600 3500
Wire Wire Line
	5700 3600 5700 3500
Wire Wire Line
	5700 3500 5900 3500
Wire Wire Line
	4800 3700 5700 3700
Wire Wire Line
	5700 3700 5700 3850
Wire Wire Line
	5700 3850 5900 3850
Wire Wire Line
	5600 3800 5600 4000
Wire Wire Line
	5600 4000 5900 4000
Wire Wire Line
	5500 3900 5500 4150
Wire Wire Line
	5500 4150 5900 4150
Wire Wire Line
	5000 3150 5000 4000
Wire Wire Line
	5000 3650 5900 3650
Connection ~ 5000 3650
Wire Wire Line
	5200 3900 5200 3150
Wire Wire Line
	5300 3800 5300 3150
Wire Wire Line
	5400 3700 5400 3150
Wire Wire Line
	5500 3600 5500 3150
Wire Wire Line
	5900 3350 5600 3350
Connection ~ 5600 3350
Wire Wire Line
	7100 3500 7100 3600
Wire Wire Line
	7100 3600 7650 3600
Wire Wire Line
	7400 3600 7400 3750
Wire Wire Line
	7400 3750 7650 3750
Connection ~ 7400 3600
Wire Wire Line
	7100 4000 7100 3900
Wire Wire Line
	7100 3900 7650 3900
$Comp
L 4075 U7
U 1 1 5BDB591B
P 6500 3500
F 0 "U7" H 6500 3550 50  0000 C CNN
F 1 "4075" H 6500 3450 50  0000 C CNN
F 2 "Housings_DIP:DIP-14_W7.62mm" H 6500 3500 60  0001 C CNN
F 3 "" H 6500 3500 60  0001 C CNN
	1    6500 3500
	1    0    0    -1  
$EndComp
$Comp
L 4075 U7
U 2 1 5BDB59AD
P 6500 4000
F 0 "U7" H 6500 4050 50  0000 C CNN
F 1 "4075" H 6500 3950 50  0000 C CNN
F 2 "Housings_DIP:DIP-14_W7.62mm" H 6500 4000 60  0001 C CNN
F 3 "" H 6500 4000 60  0001 C CNN
	2    6500 4000
	1    0    0    -1  
$EndComp
$Comp
L 4075 U7
U 3 1 5BDB5A2B
P 8250 3750
F 0 "U7" H 8250 3800 50  0000 C CNN
F 1 "4075" H 8250 3700 50  0000 C CNN
F 2 "Housings_DIP:DIP-14_W7.62mm" H 8250 3750 60  0001 C CNN
F 3 "" H 8250 3750 60  0001 C CNN
	3    8250 3750
	1    0    0    -1  
$EndComp
$Comp
L Conn_01x08 J2
U 1 1 5BDB6196
P 4600 3700
F 0 "J2" H 4600 4100 50  0000 C CNN
F 1 "Conn_01x08" H 4600 3200 50  0001 C CNN
F 2 "Pin_Headers:Pin_Header_Straight_1x08_Pitch2.54mm" H 4600 3700 50  0001 C CNN
F 3 "" H 4600 3700 50  0001 C CNN
	1    4600 3700
	-1   0    0    -1  
$EndComp
Connection ~ 9000 4100
Wire Wire Line
	4200 1800 4200 1700
Connection ~ 4500 1800
Wire Wire Line
	4200 1500 4200 1600
Connection ~ 4500 1500
$EndSCHEMATC
